…
#### Create data frame

``` r
df2 = tibble(
  x = rnorm(500),
  y = rnorm(500),
  log_vec = x + y > 1,
  num_vec = as.numeric(log_vec),
  fac_vec = as.factor(log_vec)
)

df2
```

    ## # A tibble: 500 x 5
    ##          x      y log_vec num_vec fac_vec
    ##      <dbl>  <dbl> <lgl>     <dbl> <fct>  
    ##  1 -1.55    0.638 FALSE         0 FALSE  
    ##  2 -0.549  -0.749 FALSE         0 FALSE  
    ##  3 -0.0685  1.04  FALSE         0 FALSE  
    ##  4 -0.137   1.40  TRUE          1 TRUE   
    ##  5 -0.133  -0.191 FALSE         0 FALSE  
    ##  6  0.811  -0.388 FALSE         0 FALSE  
    ##  7 -0.650   0.499 FALSE         0 FALSE  
    ##  8  1.13    0.727 TRUE          1 TRUE   
    ##  9 -0.146   0.817 FALSE         0 FALSE  
    ## 10  0.837   0.125 FALSE         0 FALSE  
    ## # ... with 490 more rows
…
